{
  "version": "1.0.0-*",

  "dependencies": {
    "NETStandard.Library": "1.6.0",
    "UserBoundedContext": "1.0.0-*"
  },

  "frameworks": {
    "netstandard1.6": {
      "imports": "portable-net45+win8"
    }
  }
}
